module francois.gannaz/mdcat

go 1.18

require github.com/charmbracelet/glamour v0.5.0

require (
	github.com/alecthomas/chroma v0.10.0 // indirect
	github.com/aymerick/douceur v0.2.0 // indirect
	github.com/dlclark/regexp2 v1.4.0 // indirect
	github.com/gorilla/css v1.0.0 // indirect
	github.com/lucasb-eyer/go-colorful v1.2.0 // indirect
	github.com/mattn/go-isatty v0.0.13 // indirect
	github.com/mattn/go-runewidth v0.0.13 // indirect
	github.com/microcosm-cc/bluemonday v1.0.17 // indirect
	github.com/muesli/reflow v0.3.0 // indirect
	github.com/muesli/termenv v0.9.0 // indirect
	github.com/olekukonko/tablewriter v0.0.5 // indirect
	github.com/rivo/uniseg v0.2.0 // indirect
	github.com/yuin/goldmark v1.4.4 // indirect
	github.com/yuin/goldmark-emoji v1.0.1 // indirect
	golang.org/x/net v0.0.0-20210614182718-04defd469f4e // indirect
	golang.org/x/sys v0.0.0-20211019181941-9d821ace8654 // indirect
)
